module gitlab.com/DasSkelett/NetKAN-Status-Exporter

go 1.20

require (
	github.com/alecthomas/kingpin/v2 v2.4.0
	github.com/goccy/go-json v0.10.2
	github.com/prometheus/client_golang v1.18.0
	github.com/prometheus/common v0.46.0
)

require (
	github.com/alecthomas/units v0.0.0-20211218093645-b94a6e3cc137 // indirect
	github.com/beorn7/perks v1.0.1 // indirect
	github.com/cespare/xxhash/v2 v2.2.0 // indirect
	github.com/prometheus/client_model v0.5.0 // indirect
	github.com/prometheus/procfs v0.12.0 // indirect
	github.com/xhit/go-str2duration/v2 v2.1.0 // indirect
	golang.org/x/sys v0.16.0 // indirect
	google.golang.org/protobuf v1.32.0 // indirect
)
